%YAML 1.1
%TAG !u! tag:unity3d.com,2011:
--- !u!1001 &100100000
Prefab:
  m_ObjectHideFlags: 1
  serializedVersion: 2
  m_Modification:
    m_TransformParent: {fileID: 0}
    m_Modifications: []
    m_RemovedComponents: []
  m_SourcePrefab: {fileID: 0}
  m_RootGameObject: {fileID: 1186982555395442}
  m_IsPrefabAsset: 1
--- !u!1 &1186982555395442
GameObject:
  m_ObjectHideFlags: 0
  m_CorrespondingSourceObject: {fileID: 0}
  m_PrefabInternal: {fileID: 100100000}
  serializedVersion: 6
  m_Component:
  - component: {fileID: 4648665310860326}
  - component: {fileID: 33371743119836940}
  - component: {fileID: 23102799661701474}
  - component: {fileID: 114255293183194832}
  m_Layer: 0
  m_Name: tugu1
  m_TagString: Untagged
  m_Icon: {fileID: 0}
  m_NavMeshLayer: 0
  m_StaticEditorFlags: 0
  m_IsActive: 1
--- !u!4 &4648665310860326
Transform:
  m_ObjectHideFlags: 1
  m_CorrespondingSourceObject: {fileID: 0}
  m_PrefabInternal: {fileID: 100100000}
  m_GameObject: {fileID: 1186982555395442}
  m_LocalRotation: {x: 0, y: 0, z: 0, w: 1}
  m_LocalPosition: {x: 14.119351, y: 1, z: 0.8385811}
  m_LocalScale: {x: 0.48165974, y: 0.48165974, z: 0.48165974}
  m_Children: []
  m_Father: {fileID: 0}
  m_RootOrder: 0
  m_LocalEulerAnglesHint: {x: 0, y: 0, z: 0}
--- !u!23 &23102799661701474
MeshRenderer:
  m_ObjectHideFlags: 1
  m_CorrespondingSourceObject: {fileID: 0}
  m_PrefabInternal: {fileID: 100100000}
  m_GameObject: {fileID: 1186982555395442}
  m_Enabled: 1
  m_CastShadows: 1
  m_ReceiveShadows: 1
  m_DynamicOccludee: 1
  m_MotionVectors: 1
  m_LightProbeUsage: 1
  m_ReflectionProbeUsage: 1
  m_RenderingLayerMask: 4294967295
  m_Materials:
  - {fileID: 2100020, guid: 63ed4a71d9da01b439ddeb3ca588ae3f, type: 3}
  - {fileID: 2100022, guid: 63ed4a71d9da01b439ddeb3ca588ae3f, type: 3}
  - {fileID: 2100018, guid: 63ed4a71d9da01b439ddeb3ca588ae3f, type: 3}
  - {fileID: 2100010, guid: 63ed4a71d9da01b439ddeb3ca588ae3f, type: 3}
  - {fileID: 2100012, guid: 63ed4a71d9da01b439ddeb3ca588ae3f, type: 3}
  - {fileID: 2100024, guid: 63ed4a71d9da01b439ddeb3ca588ae3f, type: 3}
  - {fileID: 2100026, guid: 63ed4a71d9da01b439ddeb3ca588ae3f, type: 3}
  - {fileID: 2100014, guid: 63ed4a71d9da01b439ddeb3ca588ae3f, type: 3}
  m_StaticBatchInfo:
    firstSubMesh: 0
    subMeshCount: 0
  m_StaticBatchRoot: {fileID: 0}
  m_ProbeAnchor: {fileID: 0}
  m_LightProbeVolumeOverride: {fileID: 0}
  m_ScaleInLightmap: 1
  m_PreserveUVs: 0
  m_IgnoreNormalsForChartDetection: 0
  m_ImportantGI: 0
  m_StitchLightmapSeams: 0
  m_SelectedEditorRenderState: 3
  m_MinimumChartSize: 4
  m_AutoUVMaxDistance: 0.5
  m_AutoUVMaxAngle: 89
  m_LightmapParameters: {fileID: 0}
  m_SortingLayerID: 0
  m_SortingLayer: 0
  m_SortingOrder: 0
--- !u!33 &33371743119836940
MeshFilter:
  m_ObjectHideFlags: 1
  m_CorrespondingSourceObject: {fileID: 0}
  m_PrefabInternal: {fileID: 100100000}
  m_GameObject: {fileID: 1186982555395442}
  m_Mesh: {fileID: 4300002, guid: 63ed4a71d9da01b439ddeb3ca588ae3f, type: 3}
--- !u!114 &114255293183194832
MonoBehaviour:
  m_ObjectHideFlags: 1
  m_CorrespondingSourceObject: {fileID: 0}
  m_PrefabInternal: {fileID: 100100000}
  m_GameObject: {fileID: 1186982555395442}
  m_Enabled: 1
  m_EditorHideFlags: 0
  m_Script: {fileID: 11500000, guid: 89e58e17ccca86642a73d908b186c94d, type: 3}
  m_Name: 
  m_EditorClassIdentifier: 
  range: 25
  fireRate: 0.5
  enemyTag: Enemy
  partToRotate: {fileID: 4648665310860326}
  turnSpeed: 10
  bulletPrefab: {fileID: 185070, guid: 085647db17acfbb4292fe73ed9171486, type: 2}
  firePoint: {fileID: 4648665310860326}
